<?xml version="1.0" encoding="UTF-8" standalone="no"?>
<svg
   xmlns:dc="http://purl.org/dc/elements/1.1/"
   xmlns:cc="http://creativecommons.org/ns#"
   xmlns:rdf="http://www.w3.org/1999/02/22-rdf-syntax-ns#"
   xmlns:svg="http://www.w3.org/2000/svg"
   xmlns="http://www.w3.org/2000/svg"
   xmlns:sodipodi="http://sodipodi.sourceforge.net/DTD/sodipodi-0.dtd"
   xmlns:inkscape="http://www.inkscape.org/namespaces/inkscape"
   id="svg3355"
   xml:space="preserve"
   height="170.59973"
   viewBox="0 0 1299.996 170.60058"
   width="1300"
   version="1.1"
   sodipodi:docname="st_logo.svg"
   inkscape:version="1.0 (4035a4fb49, 2020-05-01)"><defs
     id="defs13" /><sodipodi:namedview
     inkscape:document-rotation="0"
     pagecolor="#ffffff"
     bordercolor="#666666"
     borderopacity="1"
     objecttolerance="10"
     gridtolerance="10"
     guidetolerance="10"
     inkscape:pageopacity="0"
     inkscape:pageshadow="2"
     inkscape:window-width="1600"
     inkscape:window-height="866"
     id="namedview11"
     showgrid="false"
     inkscape:zoom="0.53252262"
     inkscape:cx="665.71348"
     inkscape:cy="106.81839"
     inkscape:window-x="180"
     inkscape:window-y="1080"
     inkscape:window-maximized="1"
     inkscape:current-layer="svg3355" /><metadata
     id="metadata3361"><rdf:RDF><cc:Work
         rdf:about=""><dc:format>image/svg+xml</dc:format><dc:type
           rdf:resource="http://purl.org/dc/dcmitype/StillImage" /><dc:title></dc:title></cc:Work></rdf:RDF></metadata><g
     id="g3363"
     transform="matrix(0.15625,0,0,-0.15625,622.70823,153.28636)"><g
       id="g3365"
       transform="scale(0.1)"><path
         id="path3367"
         d="M 1057.9,1009 C 1057.9,853.15 994.65,727.6 867.44,633 740.5,538.21 571.1,490.82 359.07,490.82 c -96.605,0 -205.71,9.641 -327.41,28.52 l 9.34,331 c 122.27,-29.539 234.93,-44.41 337.92,-44.41 170.54,0 255.82,55.609 255.82,167.35 0,71.349 -54.683,129.23 -164.23,173.28 -176.84,71.87 -279.13,116.82 -306.15,135.61 C 54.68,1357.97 0,1472.27 0,1625.87 c 0,145.3 56.031,262.99 167.69,353.38 120.3,98.98 287.08,148.3 500.36,148.3 77.91,0 173.96,-9.61 287.97,-28.33 l -12.59,-318.16 c -95.055,26.56 -191.79,39.78 -290.62,39.78 -155.85,0 -234.06,-53.7 -234.06,-161.05 0,-67.32 55.59,-124.49 165.9,-170.49 173.59,-71.7 275.93,-119.17 307.36,-142.35 110.51,-80.08 165.91,-192.6 165.91,-338"
         fill="#231f20" /><path
         id="path3369"
         d="m 5111.5,515.85 c -105.08,-26.231 -210.09,-39.18 -315.36,-39.18 -165.85,0 -279.77,34.098 -342.48,102.47 -62.59,68.539 -94.07,190.95 -94.07,367.91 v 760.3 h -254.77 v 297.97 h 254.77 v 459.36 l 384.61,102.12 v -561.48 h 367.3 v -297.97 h -367.3 v -658.89 c 0,-94.761 13.04,-159.81 39.44,-195.13 25.88,-35.328 72.66,-52.637 139.89,-52.637 66.53,0 129.23,8.387 187.97,25.887 V 515.85"
         fill="#231f20" /><path
         id="path3371"
         d="m 2561.9,1788 c 0,65.67 -34.18,98.61 -102.03,98.61 -30.9,0 -55.63,-9.68 -74.97,-29.02 -19.27,-18.87 -28.76,-43.89 -28.76,-74.3 0,-48.18 30.99,-107.72 93.9,-178.71 74.53,62.33 111.86,123.54 111.86,183.42 z m 163.06,-715.88 c -122.34,99.57 -226.84,193.91 -313.21,283.36 -75.56,-64.35 -113.22,-128.08 -113.22,-191.56 0,-46.86 17.21,-87.7 51.85,-122.06 34.52,-34.26 80.51,-51.398 138.49,-51.398 84.19,0 162.74,27.258 236.09,81.658 z m 516.5,-119.98 -137.6,-160.35 c -93.92,65.378 -169.1,119.78 -224.61,163.33 -123.71,-96.192 -265.68,-144.11 -426.62,-144.11 -121.1,0 -215.48,32.532 -281.97,96.711 -59.93,59.281 -90.23,135.88 -90.23,229.95 0,120.05 69.5,234.49 208.26,342.56 -92.85,109.46 -139.45,207.47 -139.45,293.69 0,76.41 28.01,139.88 83.94,190.33 60.14,54.57 141.15,81.93 243.49,81.93 93.07,0 165.07,-21.95 216.26,-66.29 50.71,-44.33 76.24,-103.07 76.24,-176.59 0,-109.21 -65.58,-215.36 -196.67,-318.1 90.61,-90.83 189.49,-179.13 296.69,-264.48 v -1.21 c 71.09,107.79 103.88,229.94 98.46,365.28 h 208.25 c 3.14,-182.21 -46.51,-341.86 -149.34,-478.43 87.62,-65.74 159.13,-116.96 214.9,-154.22"
         fill="#231f20" /><path
         id="path3373"
         d="m 2174.8,0 h -697.56 v 2844.8 h 697.56 v -78.42 l -460.84,-48.36 V 126.52 l 460.8,-48.172 V 0.02"
         fill="#961a1f" /><path
         id="path3375"
         d="m 2995,2844.8 h 697.58 V 0 H 2995 v 78.23 l 460.51,48.828 v 2590.8 l -460.51,48.65 v 78.31"
         fill="#961a1f" /></g></g></svg>
